{
  "result": 0,
  "msg": "ok",
  "data": {
    "legalColumn": [
      "id",
      "created_at"
    ],
    "legalSort": [
      "desc",
      "asc"
    ],
    "pageNumber": 1,
    "pageSize": 10,
    "totalCount": 5451,
    "pageCount": 546,
    "orderBy": [
      "id"
    ],
    "orderType": [
      "desc"
    ],
    "list": [
      {
        "id": 5517,
        "name": "4NVqUoytiPFhTp8D3bchWAwiEiE",
        "passwordDigest": "$2a$10$Ecqhwkr7sb1TEPV8ZE9QuOlptB7PMtn2c1nUAVNDShBjfwHy1DeG6",
        "mobile": "13185016989",
        "email": null,
        "cardNum": null,
        "nickname": "王富友",
        "wangba": null,
        "avatar": null,
        "city": null,
        "game": null,
        "des": null,
        "faceImg": null,
        "x": null,
        "y": null,
        "distance": 0,
        "groupsCount": 0,
        "articlesCount": 0,
        "fansCount": 0,
        "ordersCount": 0,
        "followsCount": 0,
        "recommendsCount": 0,
        "gameWarAlert": 0,
        "orderAlert": 0,
        "role": 2,
        "pay": 0.0,
        "totalPay": 0,
        "godRevenue": 0,
        "gold": 0,
        "cover": null,
        "dingId": "4NVqUoytiPFhTp8D3bchWAwiEiE",
        "godStatus": -1,
        "hot": 0,
        "sex": 0,
        "status": 1,
        "isDelete": 0,
        "age": null,
        "born": null,
        "createdAt": 1481735263000,
        "updatedAt": 1481735263000,
        "dingName": "王富友",
        "importFrom": 0,
        "authorities": null,
        "roleSet": [{
          "id": 4,
          "name": "网吧业主"
        }],
        "username": "4NVqUoytiPFhTp8D3bchWAwiEiE",
        "password": "$2a$10$Ecqhwkr7sb1TEPV8ZE9QuOlptB7PMtn2c1nUAVNDShBjfwHy1DeG6",
        "enabled": true,
        "accountNonExpired": false,
        "credentialsNonExpired": false,
        "accountNonLocked": false
      },
      {
        "id": 5518,
        "name": "4NVqUoytiPFhTp8D3bchWAwiEiE",
        "passwordDigest": "$2a$10$Ecqhwkr7sb1TEPV8ZE9QuOlptB7PMtn2c1nUAVNDShBjfwHy1DeG6",
        "mobile": "13185016989",
        "email": null,
        "cardNum": null,
        "nickname": "王晓蓉",
        "wangba": null,
        "avatar": null,
        "city": null,
        "game": null,
        "des": null,
        "faceImg": null,
        "x": null,
        "y": null,
        "distance": 0,
        "groupsCount": 0,
        "articlesCount": 0,
        "fansCount": 0,
        "ordersCount": 0,
        "followsCount": 0,
        "recommendsCount": 0,
        "gameWarAlert": 0,
        "orderAlert": 0,
        "role": 2,
        "pay": 0.0,
        "totalPay": 0,
        "godRevenue": 0,
        "gold": 0,
        "cover": null,
        "dingId": "4NVqUoytiPFhTp8D3bchWAwiEiE",
        "godStatus": -1,
        "hot": 0,
        "sex": 0,
        "status": 1,
        "isDelete": 0,
        "age": null,
        "born": null,
        "createdAt": 1481735263000,
        "updatedAt": 1481735263000,
        "dingName": "王晓蓉",
        "importFrom": 0,
        "authorities": null,
        "roleSet": [{
          "id": 4,
          "name": "网吧业主"
        }],
        "username": "4NVqUoytiPFhTp8D3bchWAwiEiE",
        "password": "$2a$10$Ecqhwkr7sb1TEPV8ZE9QuOlptB7PMtn2c1nUAVNDShBjfwHy1DeG6",
        "enabled": true,
        "accountNonExpired": false,
        "credentialsNonExpired": false,
        "accountNonLocked": false
      },
      {
        "id": 5519,
        "name": "4NVqUoytiPFhTp8D3bchWAwiEiE",
        "passwordDigest": "$2a$10$Ecqhwkr7sb1TEPV8ZE9QuOlptB7PMtn2c1nUAVNDShBjfwHy1DeG6",
        "mobile": "13185016989",
        "email": null,
        "cardNum": null,
        "nickname": "沈龙飞",
        "wangba": null,
        "avatar": null,
        "city": null,
        "game": null,
        "des": null,
        "faceImg": null,
        "x": null,
        "y": null,
        "distance": 0,
        "groupsCount": 0,
        "articlesCount": 0,
        "fansCount": 0,
        "ordersCount": 0,
        "followsCount": 0,
        "recommendsCount": 0,
        "gameWarAlert": 0,
        "orderAlert": 0,
        "role": 2,
        "pay": 0.0,
        "totalPay": 0,
        "godRevenue": 0,
        "gold": 0,
        "cover": null,
        "dingId": "4NVqUoytiPFhTp8D3bchWAwiEiE",
        "godStatus": -1,
        "hot": 0,
        "sex": 0,
        "status": 1,
        "isDelete": 0,
        "age": null,
        "born": null,
        "createdAt": 1481735263000,
        "updatedAt": 1481735263000,
        "dingName": "沈龙飞",
        "importFrom": 0,
        "authorities": null,
        "roleSet": [{
          "id": 4,
          "name": "网吧业主"
        }],
        "username": "4NVqUoytiPFhTp8D3bchWAwiEiE",
        "password": "$2a$10$Ecqhwkr7sb1TEPV8ZE9QuOlptB7PMtn2c1nUAVNDShBjfwHy1DeG6",
        "enabled": true,
        "accountNonExpired": false,
        "credentialsNonExpired": false,
        "accountNonLocked": false
      }
    ],
    "startRecord": 0
  }
}
