{
  "result": 0,
  "msg": "ok",
  "data": {
    "legalColumn": [
      "id",
      "created_at"
    ],
    "legalSort": [
      "desc",
      "asc"
    ],
    "pageNumber": 1,
    "pageSize": 10,
    "totalCount": 27,
    "pageCount": 3,
    "orderBy": [
      "id"
    ],
    "orderType": [
      "desc"
    ],
    "list": [
      {
        "id": 3158,
        "name": "业务员",
        "address": "业务员",
        "des": null,
        "cover": null,
        "x": null,
        "y": null,
        "distance": null,
        "status": 1,
        "isDelete": 0,
        "hot": null,
        "seatSize": null,
        "phone": null,
        "createdAt": null,
        "updatedAt": null,
        "isAuth": null,
        "alipayAccount": null,
        "area": "北京市,北京市,东城区",
        "areaCode": "110000,110000,110101",
        "licencePic": "/upload/temp/abc201701151484471292317.png",
        "dingCertifyPic": "/upload/temp/abc201701151484471294723.png",
        "corporIdPic": "/upload/temp/abc201701151484471281150.png,/upload/temp/abc201701151484471283454.png",
        "branchName": "业务员",
        "companyName": "网吧公司 名称业务员",
        "corporName": "法定代表：业务员",
        "corporMobile": "12222222222",
        "remark": null,
        "realControlName": "实际控制人:业务员",
        "realControlMobile": "12222222222",
        "realControlPic": "/upload/temp/a201701151484471287133.png,/upload/temp/abc201701151484471289575.png",
        "isCorporReal": 1,
        "userId": null,
        "tickets": {
          "id": 92,
          "ticket": null,
          "nonce": null,
          "corpId": "dingsdfsdfs",
          "secret": "CorpSecre",
          "agentId": "应用ID",
          "createdAt": 1484445256000,
          "updatedAt": 1484391303000,
          "accessToken": null,
          "corpName": null,
          "departmentId": "部门ID",
          "wangbaId": 3158,
          "alipayAccount": null,
          "alipayQrcode": null,
          "cashierDeptId": "收银部门ID：sdfsdf",
          "qrcodeImgPath": "https://mobilecodec.alipay.com/show.htm?code=pvx07562885tuss1tyeiy2d&picSize=M",
          "lotteryDeptId": null,
          "status": 0,
          "agents": null,
          "wangbas": null
        }
      },
      {
        "id": 3157,
        "name": "1555",
        "address": "1555",
        "des": null,
        "cover": null,
        "x": null,
        "y": null,
        "distance": null,
        "status": 0,
        "isDelete": 0,
        "hot": null,
        "seatSize": null,
        "phone": null,
        "createdAt": null,
        "updatedAt": null,
        "isAuth": null,
        "alipayAccount": null,
        "area": "北京市,北京市,东城区",
        "areaCode": "110000,110000,110101",
        "licencePic": "/upload/temp/ABC201701151484475371816.jpg",
        "dingCertifyPic": "/upload/temp/ABC201701151484475375482.jpg",
        "corporIdPic": "/upload/temp/Screen Shot 2017-01-13 at 11.30.21 AM201701151484475352621.png,/upload/temp/bg201701151484475359817.jpeg",
        "branchName": "1555",
        "companyName": "网吧公司 名称1555",
        "corporName": "法定代表1555",
        "corporMobile": "15551555155",
        "remark": null,
        "realControlName": "实际控制人1555",
        "realControlMobile": "15551555155",
        "realControlPic": "/upload/temp/bg201701151484475364835.jpeg,/upload/temp/ABC201701151484475369130.jpg",
        "isCorporReal": 1,
        "userId": null,
        "tickets": {
          "id": 93,
          "ticket": null,
          "nonce": null,
          "corpId": "dingsdfsdf",
          "secret": "dsfsdf",
          "agentId": "sdfsdf",
          "createdAt": 1484445768000,
          "updatedAt": 1484445768000,
          "accessToken": null,
          "corpName": null,
          "departmentId": "sdfsdf",
          "wangbaId": 3157,
          "alipayAccount": null,
          "alipayQrcode": null,
          "cashierDeptId": "pdf",
          "qrcodeImgPath": "https://mobilecodec.alipay.com/show.htm?code=pvx00151qzpdxzvzbqqy33e&picSize=M",
          "lotteryDeptId": null,
          "status": 1,
          "agents": null,
          "wangbas": null
        }
      },
      {
        "id": 3156,
        "name": "代理商业务员13754312332",
        "address": "代理商业务员13754312332",
        "des": null,
        "cover": null,
        "x": null,
        "y": null,
        "distance": null,
        "status": 2,
        "isDelete": 0,
        "hot": null,
        "seatSize": null,
        "phone": null,
        "createdAt": null,
        "updatedAt": null,
        "isAuth": null,
        "alipayAccount": null,
        "area": "河北省,石家庄市,长安区",
        "areaCode": "130000,130100,130102",
        "licencePic": "/upload/temp/a201701131484313688464.png",
        "dingCertifyPic": "/upload/temp/abc201701131484313691359.png",
        "corporIdPic": "/upload/temp/abc201701131484313674871.png,/upload/temp/a201701131484313677429.png",
        "branchName": "代理商业务员13754312332",
        "companyName": "网吧公司 名称-代理商业务员13754312332",
        "corporName": "代理商业务员13754312332",
        "corporMobile": "13754312332",
        "remark": null,
        "realControlName": "代理商业务员13754312332",
        "realControlMobile": "13754312332",
        "realControlPic": "/upload/temp/abc201701131484313682071.png,/upload/temp/a201701131484313684971.png",
        "isCorporReal": 1,
        "userId": null,
        "tickets": {
          "id": 91,
          "ticket": null,
          "nonce": null,
          "corpId": "ding3156",
          "secret": "3156",
          "agentId": "3156",
          "createdAt": 1484287987000,
          "updatedAt": 1484230400000,
          "accessToken": null,
          "corpName": null,
          "departmentId": "3156",
          "wangbaId": 3156,
          "alipayAccount": null,
          "alipayQrcode": null,
          "cashierDeptId": "3156",
          "qrcodeImgPath": "https://mobilecodec.alipay.com/show.htm?code=pvx03794x0ayu10k55ejd12&picSize=M",
          "lotteryDeptId": null,
          "status": 0,
          "agents": null,
          "wangbas": null
        }
      },
      {
        "id": 3155,
        "name": "门店名称13754312331",
        "address": "13754312331",
        "des": null,
        "cover": null,
        "x": null,
        "y": null,
        "distance": null,
        "status": 0,
        "isDelete": 0,
        "hot": null,
        "seatSize": null,
        "phone": null,
        "createdAt": null,
        "updatedAt": null,
        "isAuth": null,
        "alipayAccount": null,
        "area": "北京市,北京市,东城区",
        "areaCode": "110000,110000,110101",
        "licencePic": "/upload/temp/abc201701131484304571958.png",
        "dingCertifyPic": "/upload/temp/abc201701131484304574778.png",
        "corporIdPic": "/upload/temp/a201701131484304559469.png,/upload/temp/a201701131484304563303.png",
        "branchName": "分店名称13754312331",
        "companyName": "网吧公司名称13754312331",
        "corporName": "法定代表13754312331",
        "corporMobile": "13754312331",
        "remark": null,
        "realControlName": "实际控制人13754312331",
        "realControlMobile": "13754312331",
        "realControlPic": "/upload/temp/abc201701131484304565616.png,/upload/temp/abc201701131484304568758.png",
        "isCorporReal": 1,
        "userId": null,
        "tickets": {
          "id": 94,
          "ticket": null,
          "nonce": null,
          "corpId": "ding0584478b6647584435c2f4657eb6378f",
          "secret": "sfLkTQtSo6CM5m_tbKMVlz-Mg6ChEtgrOAhS6LUnocYMeXt5pwatTIjxHhm5Evc8",
          "agentId": "123123",
          "createdAt": 1484446682000,
          "updatedAt": 1484446682000,
          "accessToken": null,
          "corpName": null,
          "departmentId": "123",
          "wangbaId": 3155,
          "alipayAccount": null,
          "alipayQrcode": null,
          "cashierDeptId": "123",
          "qrcodeImgPath": "https://mobilecodec.alipay.com/show.htm?code=pvx07200os3uub2hymzxv43&picSize=M",
          "lotteryDeptId": null,
          "status": 0,
          "agents": null,
          "wangbas": null
        }
      },
      {
        "id": 3154,
        "name": "门店名称",
        "address": "*实际控制人",
        "des": null,
        "cover": null,
        "x": null,
        "y": null,
        "distance": null,
        "status": 1,
        "isDelete": 0,
        "hot": null,
        "seatSize": null,
        "phone": null,
        "createdAt": null,
        "updatedAt": null,
        "isAuth": null,
        "alipayAccount": null,
        "area": "天津市,天津市,和平区",
        "areaCode": "120000,120000,120101",
        "licencePic": "/upload/temp/abc201701101484024627270.png",
        "dingCertifyPic": "/upload/temp/abc201701101484024630632.png",
        "corporIdPic": "/upload/temp/abc201701101484024619668.png,/upload/temp/a201701101484024625060.png",
        "branchName": "分店名称",
        "companyName": "网吧公司 名称:",
        "corporName": "法定代表1741",
        "corporMobile": "11111111111",
        "remark": null,
        "realControlName": "*实际控制人",
        "realControlMobile": "11493149314",
        "realControlPic": "/upload/temp/abc201701101484024650241.png,/upload/temp/a201701101484024650813.png",
        "isCorporReal": 0,
        "userId": null,
        "tickets": {
          "id": 95,
          "ticket": "oFh8LKQKoi80PFT2VFZXlXVpFd6FIVSi1bLWneocIX2lnMO1kESjFw7D10WYbChqe5GrEVTv49AZHhAESvFNRE",
          "nonce": null,
          "corpId": "ding0584478b6647584435c2f4657eb6378f",
          "secret": "sfLkTQtSo6CM5m_tbKMVlz-Mg6ChEtgrOAhS6LUnocYMeXt5pwatTIjxHhm5Evc8",
          "agentId": "123123",
          "createdAt": 1484446949000,
          "updatedAt": 1484507700000,
          "accessToken": "12aa27ad9dd43a5fa269686fc5edfb8b",
          "corpName": null,
          "departmentId": "123",
          "wangbaId": 3154,
          "alipayAccount": null,
          "alipayQrcode": null,
          "cashierDeptId": "123",
          "qrcodeImgPath": "https://mobilecodec.alipay.com/show.htm?code=pvx0257384lkvqrnbiqel1f&picSize=M",
          "lotteryDeptId": null,
          "status": 2,
          "agents": null,
          "wangbas": null
        }
      },
      {
        "id": 3153,
        "name": "普通123ccc",
        "address": "西湖区文一西路蒋村街道西溪国际e座310室",
        "des": null,
        "cover": null,
        "x": null,
        "y": null,
        "distance": null,
        "status": 2,
        "isDelete": 0,
        "hot": null,
        "seatSize": null,
        "phone": null,
        "createdAt": null,
        "updatedAt": null,
        "isAuth": null,
        "alipayAccount": null,
        "area": "吉林省,四平市,铁东区",
        "areaCode": "220000,220300,220303",
        "licencePic": "/upload/temp/abc201701131484309314982.png",
        "dingCertifyPic": "/upload/temp/a201701131484309321093.png",
        "corporIdPic": "/upload/temp/abc201701131484309293251.png,/upload/temp/abc201701131484309300546.png",
        "branchName": "普通123fff",
        "companyName": "普通123",
        "corporName": "普1",
        "corporMobile": "13754312341",
        "remark": null,
        "realControlName": "普2",
        "realControlMobile": "15345678901",
        "realControlPic": "/upload/temp/a201701131484309309202.png,/upload/temp/a201701131484309312317.png",
        "isCorporReal": 1,
        "userId": null,
        "tickets": null
      },
      {
        "id": 3152,
        "name": "门店名称1742",
        "address": "1741",
        "des": null,
        "cover": null,
        "x": null,
        "y": null,
        "distance": null,
        "status": 2,
        "isDelete": 0,
        "hot": null,
        "seatSize": null,
        "phone": null,
        "createdAt": null,
        "updatedAt": null,
        "isAuth": null,
        "alipayAccount": null,
        "area": "天津市,天津市,河东区",
        "areaCode": "120000,120000,120102",
        "licencePic": "/upload/temp/a201701071483782210532.png",
        "dingCertifyPic": "/upload/temp/abc201701071483782213631.png",
        "corporIdPic": "/upload/temp/abc201701071483782135631.png,/upload/temp/abc201701071483782151063.png",
        "branchName": "分店名称1741",
        "companyName": "网吧公司名称1741",
        "corporName": "法定代表1741",
        "corporMobile": "15411741174",
        "remark": null,
        "realControlName": "实际控制人1742",
        "realControlMobile": "15211741174",
        "realControlPic": "/upload/temp/bbbb201701071483782187663.png,/upload/temp/bbbb201701071483782199518.png",
        "isCorporReal": 1,
        "userId": null,
        "tickets": {
          "id": 90,
          "ticket": null,
          "nonce": null,
          "corpId": "ding3152",
          "secret": "3152",
          "agentId": "3152",
          "createdAt": 1483753500000,
          "updatedAt": 1483695943000,
          "accessToken": null,
          "corpName": null,
          "departmentId": "3152",
          "wangbaId": 3152,
          "alipayAccount": null,
          "alipayQrcode": null,
          "cashierDeptId": "3152",
          "qrcodeImgPath": "https://mobilecodec.alipay.com/show.htm?code=pvx03107imo4xultex4z889&picSize=M",
          "lotteryDeptId": null,
          "status": 1,
          "agents": null,
          "wangbas": null
        }
      },
      {
        "id": 3149,
        "name": "好玩网吧3149",
        "address": "11111",
        "des": null,
        "cover": null,
        "x": null,
        "y": null,
        "distance": null,
        "status": 1,
        "isDelete": 0,
        "hot": null,
        "seatSize": null,
        "phone": null,
        "createdAt": null,
        "updatedAt": null,
        "isAuth": null,
        "alipayAccount": null,
        "area": "浙江省,杭州市,下城区",
        "areaCode": "330000,330100,330103",
        "licencePic": "/upload/temp/abc201701061483678534927.png",
        "dingCertifyPic": "/upload/temp/abc201701061483678545288.png",
        "corporIdPic": "/upload/temp/a201701061483678509979.png,/upload/temp/abc201701061483678520713.png",
        "branchName": "3149分店名称",
        "companyName": "测试网吧111",
        "corporName": "1111",
        "corporMobile": "15233333333",
        "remark": null,
        "realControlName": "31493149314931493149",
        "realControlMobile": "11493149314",
        "realControlPic": "/upload/temp/abc201701061483681604805.png,/upload/temp/abc201701061483681607507.png",
        "isCorporReal": 1,
        "userId": null,
        "tickets": {
          "id": 89,
          "ticket": null,
          "nonce": null,
          "corpId": "dingsefsdf",
          "secret": "sdfsdfw3e2",
          "agentId": "wesefsdf",
          "createdAt": 1483649658000,
          "updatedAt": 1483649658000,
          "accessToken": null,
          "corpName": null,
          "departmentId": "sdfsdf",
          "wangbaId": 3149,
          "alipayAccount": null,
          "alipayQrcode": null,
          "cashierDeptId": "sdfsdf",
          "qrcodeImgPath": "https://mobilecodec.alipay.com/show.htm?code=pvx074165hhj7fiqqsylv85&picSize=M",
          "lotteryDeptId": null,
          "status": 0,
          "agents": null,
          "wangbas": null
        }
      },
      {
        "id": 3148,
        "name": "门店名称333",
        "address": "333",
        "des": null,
        "cover": null,
        "x": null,
        "y": null,
        "distance": null,
        "status": 0,
        "isDelete": 0,
        "hot": null,
        "seatSize": null,
        "phone": null,
        "createdAt": null,
        "updatedAt": null,
        "isAuth": null,
        "alipayAccount": null,
        "area": "内蒙古自治区,呼和浩特市,回民区",
        "areaCode": "150000,150100,150103",
        "licencePic": "/upload/temp/abc201701051483607183967.png",
        "dingCertifyPic": "/upload/temp/abc201701051483607188438.png",
        "corporIdPic": "/upload/temp/abc201701051483607174740.png,/upload/temp/abc201701051483607177245.png",
        "branchName": null,
        "companyName": "网吧公司 名称333",
        "corporName": "法定代表333",
        "corporMobile": "33333333333",
        "remark": null,
        "realControlName": null,
        "realControlMobile": null,
        "realControlPic": null,
        "isCorporReal": 0,
        "userId": null,
        "tickets": null
      },
      {
        "id": 3147,
        "name": "宁波弱鸡网咖1",
        "address": "西湖区文一西路蒋村街道西溪国际e座310室",
        "des": null,
        "cover": null,
        "x": null,
        "y": null,
        "distance": null,
        "status": 0,
        "isDelete": 0,
        "hot": null,
        "seatSize": null,
        "phone": null,
        "createdAt": null,
        "updatedAt": null,
        "isAuth": null,
        "alipayAccount": null,
        "area": "浙江省,宁波市,奉化市",
        "areaCode": "330000,330200,330283",
        "licencePic": "/upload/temp/IMG_0651201701041483533455904.jpg",
        "dingCertifyPic": "/upload/temp/IMG_0652201701041483533465061.jpg",
        "corporIdPic": "/upload/temp/bb201701041483533449089.jpg,/upload/temp/tepp201701041483533527272.jpg",
        "branchName": null,
        "companyName": "宁波弱鸡网咖有限公司的",
        "corporName": "弱鸡～",
        "corporMobile": "12345678901",
        "remark": null,
        "realControlName": "弱鸡～realctr",
        "realControlMobile": "12345678999",
        "realControlPic": "/upload/temp/kk201701041483533510678.jpg,/upload/temp/tepp201701041483533522751.jpg",
        "isCorporReal": 0,
        "userId": null,
        "tickets": null
      }
    ],
    "startRecord": 0
  },
  "param": {
    "area": null,
    "areaCode": null,
    "status": null,
    "keyWord": null,
    "userIdList": null
  }
}
