{
  "result": 0,
  "msg": "ok",
  "data": {
    "legalColumn": [
      "id",
      "created_at"
    ],
    "legalSort": [
      "desc",
      "asc"
    ],
    "pageNumber": 1,
    "pageSize": 10,
    "totalCount": 22,
    "pageCount": 3,
    "orderBy": [
      "id"
    ],
    "orderType": [
      "desc"
    ],
    "list": [
      {
        "id": 3146,
        "name": "门店名称2",
        "address": "21132",
        "des": null,
        "cover": null,
        "x": null,
        "y": null,
        "distance": null,
        "status": 0,
        "isDelete": 0,
        "hot": null,
        "seatSize": null,
        "phone": null,
        "createdAt": 1483166648000,
        "updatedAt": 1483167407000,
        "isAuth": 0,
        "alipayAccount": null,
        "area": "天津市,天津市,和平区",
        "areaCode": "120000,120000,120101",
        "licencePic": "/temp/a201612311483166636465.png",
        "dingCertifyPic": "/temp/abc201612311483166646423.png",
        "corporIdPic": "/temp/abc201612311483166615213.png,/temp/a201612311483166625563.png",
        "branchName": null,
        "companyName": null,
        "corporName": "wer",
        "corporMobile": "15555555555",
        "remark": null,
        "realControlName": null,
        "realControlMobile": null,
        "realControlPic": null,
        "isCorporReal": 0,
        "userId": 1,
        "tickets": {
          "id": 68,
          "ticket": "b38CzyF8jRambLFYGi3eF2iRQYwUvFLv0MsPUjkZFz7g9KJhhgPD2xoGw5JYe0sW9UjZEOE7C5yYKXKjnv38YX",
          "nonce": "e40fd97c-17a4-4548-937a-b29deae5117e",
          "corpId": "ding83441ff39832737435c2f4657eb6378f",
          "secret": "tJvWdUsojGJbK7CAgCfh92bt8cobAI9PokEQe4VNR1MfmnAlSLYrnWcvCGwNWnrE",
          "agentId": "12121",
          "createdAt": 1482377596000,
          "updatedAt": 1482659064000,
          "accessToken": "05139c4c1abf395b83e726b4f67745cc",
          "corpName": "d2",
          "departmentId": "12",
          "wangbaId": 3146,
          "alipayAccount": null,
          "alipayQrcode": "https://mobilecodec.alipay.com/show.htm?code=pvx01041marnmzhhbqvfa67&picSize=M",
          "cashierDeptId": "12",
          "qrcodeImgPath": "/upload/images/qrcodeImgs/3146.jpg",
          "lotteryDeptId": "12",
          "status": 0,
          "agents": null,
          "wangbas": null
        }
      },
      {
        "id": 3112,
        "name": "测试网咖",
        "address": "杭州市西溪国际310",
        "des": null,
        "cover": null,
        "x": 120140447,
        "y": 30280180,
        "distance": 0,
        "status": 1,
        "isDelete": 0,
        "hot": 0,
        "seatSize": 0,
        "phone": null,
        "createdAt": 1476866533000,
        "updatedAt": 1476866533000,
        "isAuth": 1,
        "alipayAccount": null,
        "area": null,
        "areaCode": null,
        "licencePic": null,
        "dingCertifyPic": null,
        "corporIdPic": null,
        "branchName": null,
        "companyName": null,
        "corporName": null,
        "corporMobile": null,
        "remark": null,
        "realControlName": null,
        "realControlMobile": null,
        "realControlPic": null,
        "isCorporReal": 0,
        "userId": null,
        "tickets": null
      },
      {
        "id": 3111,
        "name": "桐乡舒心网咖",
        "address": "崇福镇新民路2号（崇福电影院内）",
        "des": null,
        "cover": null,
        "x": 0,
        "y": 0,
        "distance": 0,
        "status": 1,
        "isDelete": 0,
        "hot": 0,
        "seatSize": 0,
        "phone": null,
        "createdAt": 1476797846000,
        "updatedAt": 1476797846000,
        "isAuth": 1,
        "alipayAccount": null,
        "area": null,
        "areaCode": null,
        "licencePic": null,
        "dingCertifyPic": null,
        "corporIdPic": null,
        "branchName": null,
        "companyName": null,
        "corporName": null,
        "corporMobile": null,
        "remark": null,
        "realControlName": null,
        "realControlMobile": null,
        "realControlPic": null,
        "isCorporReal": 0,
        "userId": null,
        "tickets": null
      },
      {
        "id": 3110,
        "name": "桐乡鑫馨网咖",
        "address": "桐乡市梧桐街道梧桐街84号",
        "des": null,
        "cover": null,
        "x": 120533460,
        "y": 30633196,
        "distance": 0,
        "status": 1,
        "isDelete": 0,
        "hot": 0,
        "seatSize": 0,
        "phone": null,
        "createdAt": 1476787092000,
        "updatedAt": 1476787092000,
        "isAuth": 1,
        "alipayAccount": null,
        "area": null,
        "areaCode": null,
        "licencePic": null,
        "dingCertifyPic": null,
        "corporIdPic": null,
        "branchName": null,
        "companyName": null,
        "corporName": null,
        "corporMobile": null,
        "remark": null,
        "realControlName": null,
        "realControlMobile": null,
        "realControlPic": null,
        "isCorporReal": 0,
        "userId": null,
        "tickets": null
      },
      {
        "id": 3109,
        "name": "杭州萧山动感地带网吧",
        "address": "杭州萧山新塘街道南沈村坝里朱15号",
        "des": null,
        "cover": null,
        "x": 120333810,
        "y": 30145636,
        "distance": 0,
        "status": 1,
        "isDelete": 0,
        "hot": 0,
        "seatSize": 0,
        "phone": null,
        "createdAt": 1476439406000,
        "updatedAt": 1476439406000,
        "isAuth": 1,
        "alipayAccount": null,
        "area": null,
        "areaCode": null,
        "licencePic": null,
        "dingCertifyPic": null,
        "corporIdPic": null,
        "branchName": null,
        "companyName": null,
        "corporName": null,
        "corporMobile": null,
        "remark": null,
        "realControlName": null,
        "realControlMobile": null,
        "realControlPic": null,
        "isCorporReal": 0,
        "userId": null,
        "tickets": null
      },
      {
        "id": 3107,
        "name": "杭州萧山新时代网咖",
        "address": "杭州萧山新塘街道井头王社区",
        "des": null,
        "cover": null,
        "x": 120287922,
        "y": 30165534,
        "distance": 0,
        "status": 1,
        "isDelete": 0,
        "hot": 0,
        "seatSize": 0,
        "phone": null,
        "createdAt": 1476433216000,
        "updatedAt": 1476433216000,
        "isAuth": 1,
        "alipayAccount": null,
        "area": null,
        "areaCode": null,
        "licencePic": null,
        "dingCertifyPic": null,
        "corporIdPic": null,
        "branchName": null,
        "companyName": null,
        "corporName": null,
        "corporMobile": null,
        "remark": null,
        "realControlName": null,
        "realControlMobile": null,
        "realControlPic": null,
        "isCorporReal": 0,
        "userId": null,
        "tickets": null
      },
      {
        "id": 3103,
        "name": "萧山时光网咖",
        "address": "萧山闻堰街道隐龙湾商业广场2楼",
        "des": null,
        "cover": null,
        "x": 120173813,
        "y": 30129953,
        "distance": 0,
        "status": 1,
        "isDelete": 0,
        "hot": 0,
        "seatSize": 0,
        "phone": null,
        "createdAt": 1476350253000,
        "updatedAt": 1476350253000,
        "isAuth": 1,
        "alipayAccount": null,
        "area": null,
        "areaCode": null,
        "licencePic": null,
        "dingCertifyPic": null,
        "corporIdPic": null,
        "branchName": null,
        "companyName": null,
        "corporName": null,
        "corporMobile": null,
        "remark": null,
        "realControlName": null,
        "realControlMobile": null,
        "realControlPic": null,
        "isCorporReal": 0,
        "userId": null,
        "tickets": null
      },
      {
        "id": 3102,
        "name": "桐乡蓉星网咖",
        "address": "桐乡市梧桐街道梧桐大街（南）283-285号",
        "des": null,
        "cover": null,
        "x": 120551779,
        "y": 30633228,
        "distance": 0,
        "status": 1,
        "isDelete": 0,
        "hot": 0,
        "seatSize": 0,
        "phone": null,
        "createdAt": 1476327564000,
        "updatedAt": 1476339331000,
        "isAuth": 1,
        "alipayAccount": null,
        "area": null,
        "areaCode": null,
        "licencePic": null,
        "dingCertifyPic": null,
        "corporIdPic": null,
        "branchName": null,
        "companyName": null,
        "corporName": null,
        "corporMobile": null,
        "remark": null,
        "realControlName": null,
        "realControlMobile": null,
        "realControlPic": null,
        "isCorporReal": 0,
        "userId": null,
        "tickets": null
      },
      {
        "id": 3101,
        "name": "网友网咖",
        "address": "杭州市桐乡市文华路1888号",
        "des": null,
        "cover": null,
        "x": 119944549,
        "y": 30037777,
        "distance": 0,
        "status": 1,
        "isDelete": 0,
        "hot": 0,
        "seatSize": 0,
        "phone": null,
        "createdAt": 1476275514000,
        "updatedAt": 1476275514000,
        "isAuth": 1,
        "alipayAccount": null,
        "area": null,
        "areaCode": null,
        "licencePic": null,
        "dingCertifyPic": null,
        "corporIdPic": null,
        "branchName": null,
        "companyName": null,
        "corporName": null,
        "corporMobile": null,
        "remark": null,
        "realControlName": null,
        "realControlMobile": null,
        "realControlPic": null,
        "isCorporReal": 0,
        "userId": null,
        "tickets": null
      },
      {
        "id": 3100,
        "name": "天游网咖",
        "address": "浙江省嘉兴市嘉善县嘉善大道443号",
        "des": null,
        "cover": null,
        "x": 120927404,
        "y": 30823077,
        "distance": 0,
        "status": 1,
        "isDelete": 0,
        "hot": 0,
        "seatSize": 0,
        "phone": null,
        "createdAt": 1476263262000,
        "updatedAt": 1476263262000,
        "isAuth": 1,
        "alipayAccount": null,
        "area": null,
        "areaCode": null,
        "licencePic": null,
        "dingCertifyPic": null,
        "corporIdPic": null,
        "branchName": null,
        "companyName": null,
        "corporName": null,
        "corporMobile": null,
        "remark": null,
        "realControlName": null,
        "realControlMobile": null,
        "realControlPic": null,
        "isCorporReal": 0,
        "userId": null,
        "tickets": null
      }
    ],
    "startRecord": 0
  }
}
