{

  "result": 0,
  "msg": "ok",
  "data": {
    "legalColumn": [
      "id",
      "created_at"
    ],
    "legalSort": [
      "desc",
      "asc"
    ],
    "pageNumber": 1,
    "pageSize": 10,
    "totalCount": 17,
    "pageCount": 2,
    "orderBy": [
      "id"
    ],
    "orderType": [
      "desc"
    ],
    "list": [
      {
        "id": 3147,
        "name": "门店名称2",
        "address": "街道2",
        "des": null,
        "cover": null,
        "x": null,
        "y": null,
        "distance": null,
        "status": 0,
        "isDelete": 0,
        "hot": null,
        "seatSize": null,
        "phone": null,
        "createdAt": null,
        "updatedAt": null,
        "isAuth": null,
        "alipayAccount": null,
        "area": "天津市,天津市,和平区",
        "areaCode": "120000,120000,120101",
        "licencePic": "/temp/abc201701041483510372005.png",
        "dingCertifyPic": "/temp/a201701041483510374766.png",
        "corporIdPic": "/temp/abc201701041483510365149.png,/temp/abc201701041483510368756.png",
        "branchName": null,
        "companyName": null,
        "corporName": "法定代表2",
        "corporMobile": "13213213212",
        "remark": null,
        "realControlName": null,
        "realControlMobile": null,
        "realControlPic": null,
        "isCorporReal": 0,
        "userId": null,
        "tickets": {
          "id": 78,
          "ticket": null,
          "nonce": null,
          "corpId": "1",
          "secret": "1",
          "agentId": "1",
          "createdAt": 1482910022000,
          "updatedAt": 1482910022000,
          "accessToken": null,
          "corpName": null,
          "departmentId": "1",
          "wangbaId": 3147,
          "alipayAccount": null,
          "alipayQrcode": null,
          "cashierDeptId": "1",
          "qrcodeImgPath": "https://mobilecodec.alipay.com/show.htm?code=pvx05018dkrojern3l3otb6&picSize=M",
          "lotteryDeptId": null,
          "status": 0,
          "agents": null,
          "wangbas": null
        }
      },
      {
        "id": 3146,
        "name": "门店名称",
        "address": "楼层1",
        "des": null,
        "cover": null,
        "x": null,
        "y": null,
        "distance": null,
        "status": 0,
        "isDelete": 0,
        "hot": null,
        "seatSize": null,
        "phone": null,
        "createdAt": null,
        "updatedAt": null,
        "isAuth": null,
        "alipayAccount": null,
        "area": "天津市,天津市,河东区",
        "areaCode": "120000,120000,120102",
        "licencePic": "/temp/abc201701041483509986419.png",
        "dingCertifyPic": "/temp/abc201701041483509989403.png",
        "corporIdPic": "/temp/abc201701041483509979713.png,/temp/abc201701041483509982342.png",
        "branchName": null,
        "companyName": null,
        "corporName": "法定代表",
        "corporMobile": "13213213211",
        "remark": null,
        "realControlName": null,
        "realControlMobile": null,
        "realControlPic": null,
        "isCorporReal": 0,
        "userId": null,
        "tickets": {
          "id": 841,
          "ticket": null,
          "nonce": null,
          "corpId": "21",
          "secret": "21",
          "agentId": "31",
          "createdAt": 1482916596001,
          "updatedAt": 1483409033001,
          "accessToken": null,
          "corpName": null,
          "departmentId": "3",
          "wangbaId": 3102,
          "alipayAccount": null,
          "alipayQrcode": null,
          "cashierDeptId": "3",
          "qrcodeImgPath": "https://mobilecodec.alipay.com/show.htm?code=pvx05018dkrojern3l3otb6&picSize=M",
          "lotteryDeptId": null,
          "status": 3,
          "agents": null,
          "wangbas": null
        }
      },
      {
        "id": 3102,
        "name": "桐乡蓉星网咖",
        "address": "桐乡市梧桐街道梧桐大街（南）283-285号",
        "des": null,
        "cover": null,
        "x": null,
        "y": null,
        "distance": null,
        "status": 1,
        "isDelete": 0,
        "hot": null,
        "seatSize": null,
        "phone": null,
        "createdAt": null,
        "updatedAt": null,
        "isAuth": null,
        "alipayAccount": null,
        "area": null,
        "areaCode": null,
        "licencePic": null,
        "dingCertifyPic": null,
        "corporIdPic": null,
        "branchName": null,
        "companyName": null,
        "corporName": null,
        "corporMobile": null,
        "remark": null,
        "realControlName": null,
        "realControlMobile": null,
        "realControlPic": null,
        "isCorporReal": 0,
        "userId": null,
        "tickets": {
          "id": 84,
          "ticket": null,
          "nonce": null,
          "corpId": "2",
          "secret": "2",
          "agentId": "3",
          "createdAt": 1482916596000,
          "updatedAt": 1483409033000,
          "accessToken": null,
          "corpName": null,
          "departmentId": "3",
          "wangbaId": 3102,
          "alipayAccount": null,
          "alipayQrcode": null,
          "cashierDeptId": "3",
          "qrcodeImgPath": "https://mobilecodec.alipay.com/show.htm?code=pvx05018dkrojern3l3otb6&picSize=M",
          "lotteryDeptId": null,
          "status": 1,
          "agents": null,
          "wangbas": null
        }
      },
      {
        "id": 3101,
        "name": "网友网咖",
        "address": "杭州市桐乡市文华路1888号",
        "des": null,
        "cover": null,
        "x": null,
        "y": null,
        "distance": null,
        "status": 1,
        "isDelete": 0,
        "hot": null,
        "seatSize": null,
        "phone": null,
        "createdAt": null,
        "updatedAt": null,
        "isAuth": null,
        "alipayAccount": null,
        "area": null,
        "areaCode": null,
        "licencePic": null,
        "dingCertifyPic": null,
        "corporIdPic": null,
        "branchName": null,
        "companyName": null,
        "corporName": null,
        "corporMobile": null,
        "remark": null,
        "realControlName": null,
        "realControlMobile": null,
        "realControlPic": null,
        "isCorporReal": 0,
        "userId": null,
        "tickets": {
          "id": 83,
          "ticket": null,
          "nonce": null,
          "corpId": "1",
          "secret": "1",
          "agentId": "1",
          "createdAt": 1482916573000,
          "updatedAt": 1482916573000,
          "accessToken": null,
          "corpName": null,
          "departmentId": "1",
          "wangbaId": 3101,
          "alipayAccount": null,
          "alipayQrcode": null,
          "cashierDeptId": "1",
          "qrcodeImgPath": "",
          "lotteryDeptId": null,
          "status": 1,
          "agents": null,
          "wangbas": null
        }
      },
      {
        "id": 3100,
        "name": "天游网咖",
        "address": "浙江省嘉兴市嘉善县嘉善大道443号",
        "des": null,
        "cover": null,
        "x": null,
        "y": null,
        "distance": null,
        "status": 1,
        "isDelete": 0,
        "hot": null,
        "seatSize": null,
        "phone": null,
        "createdAt": null,
        "updatedAt": null,
        "isAuth": null,
        "alipayAccount": null,
        "area": null,
        "areaCode": null,
        "licencePic": null,
        "dingCertifyPic": null,
        "corporIdPic": null,
        "branchName": null,
        "companyName": null,
        "corporName": null,
        "corporMobile": null,
        "remark": null,
        "realControlName": null,
        "realControlMobile": null,
        "realControlPic": null,
        "isCorporReal": 0,
        "userId": null,
        "tickets": {
          "id": 85,
          "ticket": null,
          "nonce": null,
          "corpId": "2",
          "secret": "2",
          "agentId": "2",
          "createdAt": 1482916631000,
          "updatedAt": 1482916631000,
          "accessToken": null,
          "corpName": null,
          "departmentId": "2",
          "wangbaId": 3100,
          "alipayAccount": null,
          "alipayQrcode": null,
          "cashierDeptId": "2",
          "qrcodeImgPath": "",
          "lotteryDeptId": null,
          "status": 0,
          "agents": null,
          "wangbas": null
        }
      },
      {
        "id": 3099,
        "name": "安吉德源网咖",
        "address": "湖州市安吉县孝源街道孝源村职工之家",
        "des": null,
        "cover": null,
        "x": null,
        "y": null,
        "distance": null,
        "status": 1,
        "isDelete": 0,
        "hot": null,
        "seatSize": null,
        "phone": null,
        "createdAt": null,
        "updatedAt": null,
        "isAuth": null,
        "alipayAccount": null,
        "area": null,
        "areaCode": null,
        "licencePic": null,
        "dingCertifyPic": null,
        "corporIdPic": null,
        "branchName": null,
        "companyName": null,
        "corporName": null,
        "corporMobile": null,
        "remark": null,
        "realControlName": null,
        "realControlMobile": null,
        "realControlPic": null,
        "isCorporReal": 0,
        "userId": null,
        "tickets": {
          "id": 86,
          "ticket": null,
          "nonce": null,
          "corpId": "1",
          "secret": "1",
          "agentId": "1",
          "createdAt": 1482918497000,
          "updatedAt": 1482918497000,
          "accessToken": null,
          "corpName": null,
          "departmentId": "1",
          "wangbaId": 3099,
          "alipayAccount": null,
          "alipayQrcode": null,
          "cashierDeptId": "1",
          "qrcodeImgPath": "",
          "lotteryDeptId": null,
          "status": 1,
          "agents": null,
          "wangbas": null
        }
      },
      {
        "id": 3098,
        "name": "安吉极泰网咖",
        "address": "安吉县九洲广场4#3楼",
        "des": null,
        "cover": null,
        "x": null,
        "y": null,
        "distance": null,
        "status": 1,
        "isDelete": 0,
        "hot": null,
        "seatSize": null,
        "phone": null,
        "createdAt": null,
        "updatedAt": null,
        "isAuth": null,
        "alipayAccount": null,
        "area": null,
        "areaCode": null,
        "licencePic": null,
        "dingCertifyPic": null,
        "corporIdPic": null,
        "branchName": null,
        "companyName": null,
        "corporName": null,
        "corporMobile": null,
        "remark": null,
        "realControlName": null,
        "realControlMobile": null,
        "realControlPic": null,
        "isCorporReal": 0,
        "userId": null,
        "tickets": {
          "id": 90,
          "ticket": null,
          "nonce": null,
          "corpId": "ding234",
          "secret": "234",
          "agentId": "wre",
          "createdAt": 1483079735000,
          "updatedAt": 1483079735000,
          "accessToken": null,
          "corpName": null,
          "departmentId": "wrwe",
          "wangbaId": 3098,
          "alipayAccount": null,
          "alipayQrcode": null,
          "cashierDeptId": "werw",
          "qrcodeImgPath": "",
          "lotteryDeptId": null,
          "status": 2,
          "agents": null,
          "wangbas": null
        }
      },
      {
        "id": 3097,
        "name": "他山网咖",
        "address": "杭州下沙镇智格村下沙石材市场边",
        "des": null,
        "cover": null,
        "x": null,
        "y": null,
        "distance": null,
        "status": 1,
        "isDelete": 0,
        "hot": null,
        "seatSize": null,
        "phone": null,
        "createdAt": null,
        "updatedAt": null,
        "isAuth": null,
        "alipayAccount": null,
        "area": null,
        "areaCode": null,
        "licencePic": null,
        "dingCertifyPic": null,
        "corporIdPic": null,
        "branchName": null,
        "companyName": null,
        "corporName": null,
        "corporMobile": null,
        "remark": null,
        "realControlName": null,
        "realControlMobile": null,
        "realControlPic": null,
        "isCorporReal": 0,
        "userId": null,
        "tickets": {
          "id": 87,
          "ticket": null,
          "nonce": null,
          "corpId": "dingwerwerwerwer234",
          "secret": "sdfsdf234sdff",
          "agentId": "2342",
          "createdAt": 1483079050000,
          "updatedAt": 1483079050000,
          "accessToken": null,
          "corpName": null,
          "departmentId": "234234",
          "wangbaId": 3097,
          "alipayAccount": null,
          "alipayQrcode": null,
          "cashierDeptId": "234",
          "qrcodeImgPath": "https://mobilecodec.alipay.com/show.htm?code=pvx05536aukhh2nnlzdq6c1&picSize=M",
          "lotteryDeptId": null,
          "status": 2,
          "agents": null,
          "wangbas": null
        }
      },
      {
        "id": 3090,
        "name": "流年网咖",
        "address": "杭州市下城区华中南路668号2楼",
        "des": null,
        "cover": null,
        "x": null,
        "y": null,
        "distance": null,
        "status": 1,
        "isDelete": 0,
        "hot": null,
        "seatSize": null,
        "phone": null,
        "createdAt": null,
        "updatedAt": null,
        "isAuth": null,
        "alipayAccount": null,
        "area": null,
        "areaCode": null,
        "licencePic": null,
        "dingCertifyPic": null,
        "corporIdPic": null,
        "branchName": null,
        "companyName": null,
        "corporName": null,
        "corporMobile": null,
        "remark": null,
        "realControlName": null,
        "realControlMobile": null,
        "realControlPic": null,
        "isCorporReal": 0,
        "userId": null,
        "tickets": {
          "id": 88,
          "ticket": null,
          "nonce": null,
          "corpId": "323423",
          "secret": "werwe",
          "agentId": "werwer",
          "createdAt": 1483079251000,
          "updatedAt": 1483079251000,
          "accessToken": null,
          "corpName": null,
          "departmentId": "wwerwe",
          "wangbaId": 3090,
          "alipayAccount": null,
          "alipayQrcode": null,
          "cashierDeptId": "werwewer",
          "qrcodeImgPath": "https://mobilecodec.alipay.com/show.htm?code=pvx07971sfvuhyate4ebjb6&picSize=M",
          "lotteryDeptId": null,
          "status": 2,
          "agents": null,
          "wangbas": null
        }
      },
      {
        "id": 3088,
        "name": "绅士联盟",
        "address": "浙江省杭州市上城区庆春路135号",
        "des": null,
        "cover": null,
        "x": null,
        "y": null,
        "distance": null,
        "status": 1,
        "isDelete": 0,
        "hot": null,
        "seatSize": null,
        "phone": null,
        "createdAt": null,
        "updatedAt": null,
        "isAuth": null,
        "alipayAccount": null,
        "area": null,
        "areaCode": null,
        "licencePic": null,
        "dingCertifyPic": null,
        "corporIdPic": null,
        "branchName": null,
        "companyName": null,
        "corporName": null,
        "corporMobile": null,
        "remark": null,
        "realControlName": null,
        "realControlMobile": null,
        "realControlPic": null,
        "isCorporReal": 0,
        "userId": null,
        "tickets": {
          "id": 91,
          "ticket": null,
          "nonce": null,
          "corpId": "ding2343345",
          "secret": "2343sdfsdfsdfsd234",
          "agentId": "sfsdf3r",
          "createdAt": 1483080191000,
          "updatedAt": 1483080191000,
          "accessToken": null,
          "corpName": null,
          "departmentId": "w343sdf",
          "wangbaId": 3088,
          "alipayAccount": null,
          "alipayQrcode": null,
          "cashierDeptId": "sf23234",
          "qrcodeImgPath": "https://mobilecodec.alipay.com/show.htm?code=pvx02168cdnacxqdujiwm59&picSize=M",
          "lotteryDeptId": null,
          "status": 2,
          "agents": null,
          "wangbas": null
        }
      }
    ],
    "startRecord": 0
  },
  "param": {
    "area": null,
    "areaCode": null,
    "status": null,
    "keyWord": null,
    "userIdList": null
  }

}
